{
  "project_info": {
    "project_number": "806459724741",
    "project_id": "puckbandit-654af"
  },
  "client": [
    {
      "client_info": {
        "mobilesdk_app_id": "1:806459724741:android:38afb79df8fec4a0",
        "android_client_info": {
          "package_name": "com.hpp.puckbandit"
        }
      },
      "oauth_client": [],
      "api_key": [
        {
          "current_key": "AIzaSyA3nerkpmW7GjDaE7bUi5Ex25B3_heKStQ"
        }
      ],
      "services": {
        "analytics_service": {
          "status": 1
        },
        "appinvite_service": {
          "status": 1,
          "other_platform_oauth_client": []
        },
        "ads_service": {
          "status": 1
        }
      }
    }
  ],
  "configuration_version": "1"
}